-------------------------------------------------------------------------------
Test set: com.esl.cosmos.entities.dao.TestInstitutionDao
-------------------------------------------------------------------------------
Tests run: 1, Failures: 0, Errors: 0, Skipped: 0, Time elapsed: 5.313 sec
