-------------------------------------------------------------------------------
Test set: com.esl.cosmos.persona.dao.UtilitiesDaoTest
-------------------------------------------------------------------------------
Tests run: 26, Failures: 0, Errors: 0, Skipped: 0, Time elapsed: 9.036 sec
