-------------------------------------------------------------------------------
Test set: com.esl.cosmos.security.dao.TestRoleGroupDao
-------------------------------------------------------------------------------
Tests run: 6, Failures: 0, Errors: 0, Skipped: 0, Time elapsed: 3.508 sec
